('C:\\Users\\Slim_Shah\\dist\\StartServer.exe',
 True,
 False,
 False,
 'D:\\Project\\Venter\\Install_Libraries\\Venter.ico',
 None,
 False,
 False,
 '<?xml version="1.0" encoding="UTF-8" standalone="yes"?><assembly manifestVersion="1.0" xmlns="urn:schemas-microsoft-com:asm.v1"><assemblyIdentity name="StartServer" processorArchitecture="amd64" type="win32" version="1.0.0.0"/><compatibility xmlns="urn:schemas-microsoft-com:compatibility.v1"><application><supportedOS Id="{e2011457-1546-43c5-a5fe-008deee3d3f0}"/><supportedOS Id="{1f676c76-80e1-4239-95bb-83d0f6d0da78}"/><supportedOS Id="{4a2f28e3-53b9-4441-ba9c-d69d4a4a6e38}"/><supportedOS Id="{35138b9a-5d96-4fbd-8e2d-a2440225f93a}"/><supportedOS Id="{8e0f7a12-bfb3-4fe8-b9a5-48fd50a15a9a}"/></application></compatibility></assembly>',
 True,
 'StartServer.pkg',
 [('out00-PYZ.pyz',
   'C:\\Users\\Slim_Shah\\build\\StartServer\\out00-PYZ.pyz',
   'PYZ'),
  ('struct',
   'c:\\users\\slim_shah\\appdata\\local\\programs\\python\\python35\\lib\\struct.pyo',
   'PYMODULE'),
  ('pyimod01_os_path',
   'c:\\users\\slim_shah\\appdata\\local\\programs\\python\\python35\\lib\\site-packages\\PyInstaller\\loader\\pyimod01_os_path.pyc',
   'PYMODULE'),
  ('pyimod02_archive',
   'c:\\users\\slim_shah\\appdata\\local\\programs\\python\\python35\\lib\\site-packages\\PyInstaller\\loader\\pyimod02_archive.pyc',
   'PYMODULE'),
  ('pyimod03_importers',
   'c:\\users\\slim_shah\\appdata\\local\\programs\\python\\python35\\lib\\site-packages\\PyInstaller\\loader\\pyimod03_importers.pyc',
   'PYMODULE'),
  ('pyiboot01_bootstrap',
   'c:\\users\\slim_shah\\appdata\\local\\programs\\python\\python35\\lib\\site-packages\\PyInstaller\\loader\\pyiboot01_bootstrap.py',
   'PYSOURCE'),
  ('StartServer',
   'D:\\Project\\Venter\\Install_Libraries\\StartServer.py',
   'PYSOURCE'),
  ('VCRUNTIME140.dll',
   'c:\\users\\slim_shah\\appdata\\local\\programs\\python\\python35\\VCRUNTIME140.dll',
   'BINARY'),
  ('python35.dll',
   'c:\\users\\slim_shah\\appdata\\local\\programs\\python\\python35\\python35.dll',
   'BINARY'),
  ('_ssl',
   'c:\\users\\slim_shah\\appdata\\local\\programs\\python\\python35\\DLLs\\_ssl.pyd',
   'EXTENSION'),
  ('unicodedata',
   'c:\\users\\slim_shah\\appdata\\local\\programs\\python\\python35\\DLLs\\unicodedata.pyd',
   'EXTENSION'),
  ('win32api',
   'c:\\users\\slim_shah\\appdata\\local\\programs\\python\\python35\\lib\\site-packages\\win32\\win32api.pyd',
   'EXTENSION'),
  ('pyexpat',
   'c:\\users\\slim_shah\\appdata\\local\\programs\\python\\python35\\DLLs\\pyexpat.pyd',
   'EXTENSION'),
  ('_hashlib',
   'c:\\users\\slim_shah\\appdata\\local\\programs\\python\\python35\\DLLs\\_hashlib.pyd',
   'EXTENSION'),
  ('_bz2',
   'c:\\users\\slim_shah\\appdata\\local\\programs\\python\\python35\\DLLs\\_bz2.pyd',
   'EXTENSION'),
  ('_lzma',
   'c:\\users\\slim_shah\\appdata\\local\\programs\\python\\python35\\DLLs\\_lzma.pyd',
   'EXTENSION'),
  ('_socket',
   'c:\\users\\slim_shah\\appdata\\local\\programs\\python\\python35\\DLLs\\_socket.pyd',
   'EXTENSION'),
  ('select',
   'c:\\users\\slim_shah\\appdata\\local\\programs\\python\\python35\\DLLs\\select.pyd',
   'EXTENSION'),
  ('pywintypes35.dll',
   'c:\\users\\slim_shah\\appdata\\local\\programs\\python\\python35\\lib\\site-packages\\pywin32_system32\\pywintypes35.dll',
   'BINARY'),
  ('base_library.zip',
   'C:\\Users\\Slim_Shah\\build\\StartServer\\base_library.zip',
   'DATA'),
  ('StartServer.exe.manifest',
   'C:\\Users\\Slim_Shah\\build\\StartServer\\StartServer.exe.manifest',
   'BINARY'),
  ('pyi-windows-manifest-filename StartServer.exe.manifest', '', 'OPTION')],
 [],
 False,
 False,
 1531305790,
 [('run.exe',
   'c:\\users\\slim_shah\\appdata\\local\\programs\\python\\python35\\lib\\site-packages\\PyInstaller\\bootloader\\Windows-64bit\\run.exe',
   'EXECUTABLE')])
