('C:\\Users\\Slim_Shah\\build\\StartServer\\out00-PKG.pkg',
 {'BINARY': 1,
  'DATA': 1,
  'EXECUTABLE': 1,
  'EXTENSION': 1,
  'PYMODULE': 1,
  'PYSOURCE': 1,
  'PYZ': 0},
 [('out00-PYZ.pyz',
   'C:\\Users\\Slim_Shah\\build\\StartServer\\out00-PYZ.pyz',
   'PYZ'),
  ('struct',
   'c:\\users\\slim_shah\\appdata\\local\\programs\\python\\python35\\lib\\struct.pyo',
   'PYMODULE'),
  ('pyimod01_os_path',
   'c:\\users\\slim_shah\\appdata\\local\\programs\\python\\python35\\lib\\site-packages\\PyInstaller\\loader\\pyimod01_os_path.pyc',
   'PYMODULE'),
  ('pyimod02_archive',
   'c:\\users\\slim_shah\\appdata\\local\\programs\\python\\python35\\lib\\site-packages\\PyInstaller\\loader\\pyimod02_archive.pyc',
   'PYMODULE'),
  ('pyimod03_importers',
   'c:\\users\\slim_shah\\appdata\\local\\programs\\python\\python35\\lib\\site-packages\\PyInstaller\\loader\\pyimod03_importers.pyc',
   'PYMODULE'),
  ('pyiboot01_bootstrap',
   'c:\\users\\slim_shah\\appdata\\local\\programs\\python\\python35\\lib\\site-packages\\PyInstaller\\loader\\pyiboot01_bootstrap.py',
   'PYSOURCE'),
  ('StartServer',
   'D:\\Project\\Venter\\Install_Libraries\\StartServer.py',
   'PYSOURCE'),
  ('VCRUNTIME140.dll',
   'c:\\users\\slim_shah\\appdata\\local\\programs\\python\\python35\\VCRUNTIME140.dll',
   'BINARY'),
  ('python35.dll',
   'c:\\users\\slim_shah\\appdata\\local\\programs\\python\\python35\\python35.dll',
   'BINARY'),
  ('_ssl',
   'c:\\users\\slim_shah\\appdata\\local\\programs\\python\\python35\\DLLs\\_ssl.pyd',
   'EXTENSION'),
  ('unicodedata',
   'c:\\users\\slim_shah\\appdata\\local\\programs\\python\\python35\\DLLs\\unicodedata.pyd',
   'EXTENSION'),
  ('win32api',
   'c:\\users\\slim_shah\\appdata\\local\\programs\\python\\python35\\lib\\site-packages\\win32\\win32api.pyd',
   'EXTENSION'),
  ('pyexpat',
   'c:\\users\\slim_shah\\appdata\\local\\programs\\python\\python35\\DLLs\\pyexpat.pyd',
   'EXTENSION'),
  ('_hashlib',
   'c:\\users\\slim_shah\\appdata\\local\\programs\\python\\python35\\DLLs\\_hashlib.pyd',
   'EXTENSION'),
  ('_bz2',
   'c:\\users\\slim_shah\\appdata\\local\\programs\\python\\python35\\DLLs\\_bz2.pyd',
   'EXTENSION'),
  ('_lzma',
   'c:\\users\\slim_shah\\appdata\\local\\programs\\python\\python35\\DLLs\\_lzma.pyd',
   'EXTENSION'),
  ('_socket',
   'c:\\users\\slim_shah\\appdata\\local\\programs\\python\\python35\\DLLs\\_socket.pyd',
   'EXTENSION'),
  ('select',
   'c:\\users\\slim_shah\\appdata\\local\\programs\\python\\python35\\DLLs\\select.pyd',
   'EXTENSION'),
  ('pywintypes35.dll',
   'c:\\users\\slim_shah\\appdata\\local\\programs\\python\\python35\\lib\\site-packages\\pywin32_system32\\pywintypes35.dll',
   'BINARY'),
  ('base_library.zip',
   'C:\\Users\\Slim_Shah\\build\\StartServer\\base_library.zip',
   'DATA'),
  ('StartServer.exe.manifest',
   'C:\\Users\\Slim_Shah\\build\\StartServer\\StartServer.exe.manifest',
   'BINARY'),
  ('pyi-windows-manifest-filename StartServer.exe.manifest', '', 'OPTION')],
 False,
 False,
 False)
