Complaint Description,Predicted category 1,Predicted category 2,Predicted category 3
"sir Mera atm Care aaplai kiya hu he sir usko 2manth ho gaye he par aabhi tak muje nhi mila he Or mene bank me camplen ki par koi Jawab nhi mil raha he  Or me Mere ko bar bar time par time de rahe he Or paresh kar rahe he. 
plese help me plese...............?",ATM related,Staff Behaviour,Wrong charges/Over charge
"Hi Team,
Our user, Chiranjit Dey has a following complaint against you: 
‘‘I Chiranjit Dey IFSC Code BKID 0004348 MICR Code 734013503 Customer ID 112593762 A/c opened 12.01.2011. dear sir i have lost my ATM card applied for a new card one month ago they (bank) provide me the new Visa card without PIN NUMBER they're says not working current pin to link your a/c. still 15 days over they're says we r trying to link your ATm card u can come now after 15 days we r trying card PIN no send to higher authority we r not receive but they give me the ATM card (without PIN)’’
Phone 7384434255  plz solved this issues As soon as possible",ATM related,Staff Behaviour,No Signal/Unable to use
Atms  in,Wrong charges,Staff Behaviour,No Signal/Unable to use
"ATMs in Karrahi ,Barra-2 & Govind Nagar ,Kanpur are always out of cash,unable to print receipt & running on outdated windows XP.These problems cause trouble to customers. Please fix them fast",ATM related,Staff Behaviour,No Signal/Unable to use
"Hello sir/mam,
My ATM card got blocked for online transaction. I cannot make any transaction online. I tried to reach the customer service. They told me that the problems have been sorted out, but my issues were not at all solved. I informed them again, but they didn't respond me any more.",ATM related,Staff Behaviour,Payment Gateway failure
"Respected sir or ma'am, I have made a complaint against Allahabad Bank Barra  colony branch, Kanpur regarding non functioning & unavailability of cash in its  ATM in July,2017  , but for some days  I find cash in its ATM but now the previous condition of atm is back.Please do take strict action against aforesaid branch...so that requisite cash availability can be kept.",ATM related,Staff Behaviour,Payment Gateway failure
sir hamare account se paisa debit Ho Gaya hai hamne andhara bank ATM se paisa nikala paisa bhi nahi nikala account se debit bhi ho gaya,Wrong charges,ATM related,Staff Behaviour
"my acc debit through ATM but cash not found.25October 2017.11:00am.i complained branch .there are no heering. & go on resignal office there are nobody help us .I am very trouble sir,Cash amount-10000.",ATM related,Wrong charges/Over charge,Staff Behaviour
"yesterday I have lost my ATM card , and I'm not at my hometown. there is toll free customer service no .I'm trying frm last night to block my ATM card . but every time no is busy plss help me or give me other options.",ATM related,Payment Gateway failure,Staff Behaviour
"I went to draw rs 10000/(ten thousand only) from a axis bank ATM located at Chatra, Birbhum on 03/01/2018. I aplird pin and amount, but unfortunately the ATM machine bevame off and it debited from my account the said amount. I have complained in the branch, but I did not get back my money. Sir, pls do something so that I get back my ten thousand rupees. thank you.",ATM related,Wrong charges,Staff Behaviour
"dear sir, on 05 feb 2018  i have try to withdraw rs 2000 from Indicash atm id TAAN0226 at 104 railway road,manvendra nagar Rishikesh, but due to some technical issues money was not withdrawn. and atm shows some error massage. but my account has been debited by rs 2000.i allready give a complain letter to nearest branch of allahabad bank at haridwar road on 7 feb.2018. but the money is still not refunded.and bank members saying that as per indicas replies transaction was successful. but i dont have any transaction no provided by bank.  please help  thanks
 sorry for bad English 
.manveer singh 
ac no. 50153661588
allahabad bank",Wrong charges,ATM related,Staff Behaviour
please this order not delivery  today why tell me urgently revert,Delay in delivery,Bad food,Wrong/Faulty product
not my order today deliver why and not inform,Delay in delivery,Payment Gateway failure,Bad food
"Dear
sir this is your products delivery my home address not a delivery plz sir plz  problem solved resolved",Delay in delivery,No Signal/Unable to use,Wrong/Faulty product
This order is delayed and being handled very carelessly. The delivery boy called me to confirm the address and I told him the place where he had to come. He thereafter neither came at the place  nor he telephoned me. He rather rescheduled the delivery. This is very disappointing at your end. I will complaint against the delivery boy and Flipkart regarding this to every possible authority.,Delay in delivery,Bad food,Wrong/Faulty product
I order an iphone se 32gb on 25/05/2017 I paid my amount bt still don't get my phone delivery date is 5/6/2017 they still not give any update about my phone.,Delay in delivery,Wrong/Faulty product,Bad food
I order voltas ac from Flipkart at the tym of delivery I wasn't available...  Becoz they didn't inform me right time I reschedule delivery 3-4 times and call customer care no. Of times they give new excuses every tym and didn't delivered my order yet even they are not looking interested to deliver it... Pls take a action on my serious demand,Delay in delivery,Bad food,Wrong/Faulty product
Our landline faces frequent Internet disconnection.,Internet issues,No Signal/Unable to use,Wrong charges/Over charge
I want to disconnect my broadband phone because I have already alternate number. My broadband number is 0562-4042717. Please disconnect my broadband as soon as possible.,Internet issues,No Signal/Unable to use,Wrong charges/Over charge
I want a disconnect my broadband service because I have already alternate service. My broadband number is 0562-4042717. Please disconnect my broadband as soon as possible.,Internet issues,No Signal/Unable to use,Wrong charges/Over charge
Frequent Internet disconnection of broadband number +917940054688,Internet issues,No Signal/Unable to use,Wrong charges/Over charge
I want to status my disconnect my broadband service.,Internet issues,No Signal/Unable to use,Porting issues
Internet is very slow on broadband number +917940054688,Internet issues,No Signal/Unable to use,Wrong charges/Over charge
"Dear sir, 
              My airtel number 9596109838 recharge with @250 with data pack 3g but not Internet going  good speed 2g speed from bad,I have very complaints but not solved issue.

Regards shahnawaz Ahmad 
9797776186",Internet issues,No Signal/Unable to use,Wrong charges/Over charge
My Airtel broad brand Connection not working for last 2 days customer care no. not help ful. Not happy with your services.  if you cannot reslove my issue with in 1 hour  please disconnect my connection. I go to take other broad band connection..,Wrong charges/Over charge,Internet issues,No Signal/Unable to use
I recharged for ₹349 daily 1 GB data plan... but I'm not getting connected to 4g. it's showing only H+.. though my handset supports 4g and my sim too is 4g I'm mostly getting connected in 2g or 3g.. update 4g configuration,Internet issues,Wrong charges/Over charge,Porting issues
pls increase the signal strength and indroduce 3G facilities of the Airtel tower had already constructed in KURUVANKOTTAI---627853 (TamilNadu).because very low signal strength near Airtel tower in KURUVANKOTTAI---627853. we face indoor issue on 2G/3G  network so pls solve the issue immediately.,No Signal/Unable to use,Internet issues,Porting issues
They said that high speed internet and all covering network and number one in telecom network but I facing a lot of trouble with this network no speed of data and call interrupt and many more so I need explanations and solution,Internet issues,No Signal/Unable to use,Porting issues
airtel network not coming in my home and today your exuctive ( Manoj 7042332772 and complaint no. C2GIN3012656981000 ) came and told network not coming in my home. please help,No Signal/Unable to use,Porting issues,Wrong charges/Over charge
my Airtel connection not working last one month.... Please take care of this issue Regard Balvinder Singh 9811420314,No Signal/Unable to use,Wrong charges/Over charge,Internet issues
Please tell this my complaint status   C2GIN3012656981000 &very  very bed signal my area please resolve my signal issue,No Signal/Unable to use,Internet issues,Porting issues
"Dear sir, 

hi my name is  i am currently using Air tel Prepaid connection .currently im staying Near Burari Delhi 110084. the problem is in this area there is no NETWORK COVERAGE as soon as i enter in to my house i don't receive or im not able to make calls but i am able to send & receive sms. all my neighbors are also facing this problem please take this issue seriously & solve it as soon as possible ,",No Signal/Unable to use,Internet issues,Porting issues
sir we have a network issue in the haripuri colony hyderabad since yesterday. we r unable to call and unable to receive calls .please look into this problem . its urgent,No Signal/Unable to use,Internet issues,Staff Behaviour
Want to disconnect landline 079 40054688. Pls let us know the next steps,No Signal/Unable to use,Internet issues,Wrong charges/Over charge
no network,No Signal/Unable to use,Internet issues,Porting issues
no network,No Signal/Unable to use,Internet issues,Porting issues
no network,No Signal/Unable to use,Internet issues,Porting issues
i don't know why I'm not receiving any call or msg from my contacts whenever they call or text me. I'm facing this problem for two days. plz solve my problem as soon as possible.. my number is 8006561559,No Signal/Unable to use,Wrong/Faulty product,Porting issues
My landline is not working. Landline Phone Number 43539027. Please send someone to fix it.,No Signal/Unable to use,Internet issues,Wrong charges/Over charge
"I could not able to reach out to customer care, I have a complaint on frequent disconnection of calls",No Signal/Unable to use,Wrong charges/Over charge,Porting issues
SIR JI 4G NOT WORKING ITS SHOWS EMERGENCY CALL  50 TIMES IN A DAY NETWORK GOES COMES I HAVE COMPLAINT A LOT OF TIMES AND I TOLD THEM I DONT NEED YOUR PLAN REFUND MY MONEY THEY ARE NOT LISTENING THEY ARE SAYING NETWORK IS GOOD IS GOOD WHAT IS THIS I HAVE SEND THEM SCREENSHOTS ALSO NO SOLUTION WASTE OF MONEY AND TIME WHAT TO DO,No Signal/Unable to use,Porting issues,Wrong charges/Over charge
"dear sir,
I want to draw your attention that this time I am getting report from Flipkart that technician visit is already there... still refund request is not processing...",Wrong/Faulty product,No Signal/Unable to use,Refund issues
"I got a refund from flipkart of Rs 509. But after a few days they again cut my money and my account balance became Rs 0. After repeated mails and calls for the past 2 to 3 months also, they are not refunding and are trying to cheat me.",Wrong charges/Over charge,Payment Gateway failure,Wrong charges
"My refund of Rs. 2691/- is not sent in my A/C for the mentioned Order Id. It's been 3 months but still I got no refund from flipkart. I made contacts several time but they're just making me fool by saying that their seller has refunded the amount. All time I raised my complaint with them, they're just saying the same thing. They further suggested me to contact my bank for assistance, So I did all they said. And from the bank side they cleared that no amount is sent in my a/c on the date flipkart mentioned. I sent  them the confirmation mail they asked for, and again they fooled me by saying the same that they're clear from their end. So I could do nothing than waiting in hope for some help from anywhere ..Please help me out..Thank You..",Refund issues,Payment Gateway failure,Consumer extremely frustated
"i have lost about 2632 rupees from my flipkart wallet about 24 days ago.when i contacted flipkart they told me to contac
t phonepe.when i contacted phonepe they say, that is not their mistake.they tell me to contact flipkart.i comtacted flipkart again.then they said that's not their mistake.they are telling me 'check your phone number id'.i don't get my money.",Refund issues,Wrong/Faulty product,Consumer extremely frustated
"Dear Sir/Madam


Greetings!


On dated 05-05-2017 i have done a transaction trough debit card from bank of india account amounting Rs.14,999/- which actually paid to Flipcart against my order but after my payment i have cancelled that order because of some personal reason and also i have Contacted to Flipcart for my Cash refund to my Bank of india account after that flipcart replied me with refference number ICTR5343538885 and said to contact with Bank if your account not credited within 5 to 6 Business days, From 05-05-2017 to 19-05-2017 my account not credited and  i am going to bank everyday but i have not getting any solutions till today so that i need your Kind cooperation kindly do the needfull such that i will be greatful to you details are as under mentioned:-


Payee  Details

Account Holder Name- Mr. Abinash Swain

Account No -540010110004201

IFSC CODE : BKID0005400
Branch-Keonjhar

Bank-Bank Of india

Transaction Amount-14,999/-

Transaction Date-05-05-2017


Flipcart Order Details

Order Date-05-05-2017

Payment Mode - Debit Card

Amount-14,999/-

Ordered By-Mr.Abinash Swain",Wrong charges,Payment Gateway failure,Staff Behaviour
not refund my balance my acc  day is 30 so please refund my balance in my acc so please help me,Wrong charges/Over charge,Wrong charges,Payment Gateway failure
"I have purchased a product from Flipkart on 18th May 2017 and payment was maid through PhonePe wallet from Flipkart. So after receiving the item I found the product is not suitable so I put a request for return and the same has been accepted. As per Flipkart they said me they have refund my money into PhonePe wallet and that has credited on 30th May'17. But my wallet is still not credited so later on when I contacted Flipkart they said that matter can only by resolve by PhonepPe. Again I have contacted PhonePe they said me they have refunded the amount to my bank account but it will take 7 business working days.
After 7days I put several mails and made calls they asked for 4 to 5 more days. Still issue is not solved later on they again asked 2 more days. But still they didnot refund my money. I have there mails where they said it will be solved within mentioned time . Now Flipkart is not helping me out to solve the issue . They are pushing me towards PhonePe but PhonePe is not providing me my amount.

Request you to take  strict steps for mental harassment and cheating.

Lots are customer are facing this problem.


Please help me out.

Order No.109186732985345000
Amount: 410.00
E-commerce: Flipkart & PhonePe.


Thanks.",Refund issues,Wrong/Faulty product,Payment Gateway failure
product damaged sir I want refund,Wrong/Faulty product,Refund issues,Delay in delivery
sir branch manager mare wife ka A/C ki passbook nahi da Raha Hai or na he payments hona da Raha Hai mujha dar Hai ki khi vo unka a/c ma frod hona ki Sanka ha Sir plz unka A/C ki passbook Dolan's ki kirpa kara,Staff Behaviour,ATM related,Wrong charges
I applied for the online banking in sitapur road branch Lucknow Uttar Pradesh .more than 6months has passed.every time i enquire about it to the bank manager he makes one or the other excuse and ask me for reapllying.,Staff Behaviour,ATM related,No Signal/Unable to use
kcc कार्ड बनाने के लिए बैंक मेनेजर द्वारा परसेंटेज माँगा जा रहा है और इसकी अदायगी न कर पाने से मेनेजर kcc कार्ड नहीं बना रहा है,Wrong charges,Staff Behaviour,No Signal/Unable to use
"Date: 14 July 2017

Dear Senior Management 

I've struggling with Mr. Meena Ji (as known in the premise) of Allahabad bank, Ambabari Branch,  Jaipur, who earlier took unproportionate time to open a current account of my company, Contree Foundation. They never give complete document requirements in one go and then keeps on stalling the process. After a lot of struggle I got it open and decided not to complain. 

Today, I, one of the two directors, went to withdraw money from the current account using cheque with only my signature. Mr. Meena arrogantly denied to process the withdrawal stating that 'Joint by All' is mentioned in the records. 

I asked then, ""How could you process it earlier on two instances when I could withdraw money using signature of just one of the director. No issue was raised then.""

To which Mr. Meena and a few other staff members ganged up to dominate me by saying that,"" Jo ho gaya use jaane do (chuck it what happened earlier"". 
 
Additionally, to strengthen their claim, one of the staff officer asserted that it is NOT POSSIBLE AT ALL in any circumstance for a single director of a COMPANY to withdraw money WITHOUT the signature of at least two directors as per the Companies Act. This is highly misguiding as he tweaked the rule as per his convenience. 

Either today they were right,  but then they were certainly wrong on two previous instances by withdrawing the money with just one director's signature, hence breaching the bank rules. Or they were wrong today.

I, sincerely, wish to ask the senior management of Allahabad Bank that should such employees continue to misguide the bank customers and work according to their personal policies or should they sincerely comply with proper policies of the bank as decided by the senior management? 
I am highly disappointed by the constant unprofessional behavior of the staff of Allahabad Bank, Ambabari Branch, Jaipur and feel stuck with them as I am running a startup with numerous other challenges. I atleast expect bank to be professional. 

See if you can do anything.
#AllahabadBank #Unprofessional",Staff Behaviour,Wrong charges,ATM related
I have an account in Hdfc sec17 gurgaon. I visited the branch and  filled the application form to close the account on 25 July 2017 . They assured that the account will be closed within a week but its been three weeks and its still not closed..Please close my account,Staff Behaviour,ATM related,Wrong charges
"Hello Sir .

i am Shopping With Filipcart on 04 October 2017 i will pay ₹ 5,769 Rupees for a product via my Visa Debit Card. Unfortunately Some issu With Product so i return it to Filipcart. They will Refund back full amount to Back to source to debit card and ask me to wait 24 oct 2017 to reflect money. But yet i am not received any Amount in my Bank Account. I'm also go to my Home Branch twice in a day they will not helping to me and also Saying that they couldn't helping with this case. They are Asking For NEFT transaction No. But You know sir if any amount pay with Online debit card and give back to source in debit card. Filipcart Give me Transaction ID of full refund is 655914772174. 

here is Refund Information from Filipcart. with Order ID. i am not seriesfid with home branch they are not listening my problem",Wrong charges,Payment Gateway failure,ATM related
"Hello Sir . i am Shopping With Filipcart on 04 October 2017 i will pay ₹ 5,769 Rupees for a product via my Visa Debit Card. Unfortunately Some issu With Product so i return it to Filipcart. They will Refund back full amount to Back to source to debit card and ask me to wait 24 oct 2017 to reflect money. But yet i am not received any Amount in my Bank Account. I'm also go to my Home Branch twice in a day they will not helping to me and also Saying that they couldn't helping with this case. They are Asking For NEFT transaction No. But You know sir if any amount pay with Online debit card and give back to source in debit card. Filipcart Give me Transaction ID of full refund is 655914772174.  here is Refund Information from Filipcart. with Order ID. i am not seriesfid with home branch they are not listening my problem",Wrong charges,Payment Gateway failure,ATM related
There are very limited branches in Baroda. Kindly open a branch in Vasna Road area.,Staff Behaviour,ATM related,No Signal/Unable to use
sir I have open new current account  on 25-9 17 bank issue cheque book and charge 500 without any massage and permmision for deduction  . agar inform kiya hota low balance after cheque issue kay baad hoga to maintain ker lata coustmer .  Nahi massage ya  inform kai bina low balance penalty is totaly wrong sir.  massage ya  inform  from bank rule  hi . jab low balance deduct karna ho.  sir requst hi ya money wapas honi chhiya.,Wrong charges,Staff Behaviour,Wrong charges/Over charge
bank employees are not work done soon.not linking adhar no. to account. I give adhar no.three time but not.,Staff Behaviour,ATM related,Wrong charges
सर मेरा नाम अब्दुल्लाह है ग्राम व् पोस्ट पसाई का निवासी हु मेरा kcc का खाता allahabad बैंक की शाखा गोइठहा में दिनांक 07.03.2018 को खुला था मैं खाते के बारे में सलाह लेने आज दिनांक 17.03.2018 को शाखा में गया तो मैनेजर मुझ पर भड़क गए और अप्सब्द कह कर बाहर कर दिया,Wrong charges,Payment Gateway failure,Wrong charges/Over charge
"I have opened an FD account in your bank and on maturity i was promised an amount of Rs. 31,006. But on maturity the bank is giving me on Rs. 11,000. Please look into the matter so that i can get my money.",Wrong charges,Payment Gateway failure,Wrong charges/Over charge
"सर आपसे विनती करता हूं कि मेरा बैलेंस वापस कर दिया जाए मैं बहुत परेशान हूं  सर मैं आपकी ही बैंक का ग्राहक हूं मैं आपकी  इंदौर जिले की index शाखा का ग्राहक हूं मैंने अपने ATM कार्ड से  गांव कंपेल के SBI के एटीएम मशीन से 10000 का वीड्राल  भरा था लेकिन वहां ट्रांजैक्शन सक्सेसफुल नहीं हो पाया बीच में ही रद्द हो गया मैंने वापस कैंसल कर के 10000 का दूसरा विकराल भरा लेकिन वह भी सफल नहीं हो पाया तो मैंने कैंसल कर के बंद कर दिया लेकिन दूसरे दिन मेरे ₹20000 कट गए और मुझे कोई सिलिप नहीं मिली ना कोई मैसेज आया 
सर मेरा खाता न. 885610110002525",ATM related,Staff Behaviour,Wrong charges
dear sir I transfer 4900 Rs. from paytm wallet to axis bank on 11 June2017. amount debit in wallet but not credit in axis bank. paytm blame on axis bank and axis bank blame on paytm. in paytm amount show still pending.wallet trx I'd is 11319572622.you and axis bank both fraud company.please help me. I need money........,Wrong charges,Staff Behaviour,Wrong charges/Over charge
Sir Mai idea money ka distributor hu Mai company  ko apne ac se biling lagta hu Mai 28/07/2017 ko 100000 rs jisaka utr no-720918337469 hai or phir sir Mai 01/08/2017 ko 25000 rs jisaka utr no721313676273 hai jo ki mere ac. Se cut gaya hai or mere idea money me nahi aaya bank Kah rahi ki aap toll free number pa call Karo us number par call nahi ja raha hai sir hame abhi tak pesa nahi mila,Wrong charges,Wrong charges/Over charge,ATM related
Sir Mai 28/07/2017 ko apne ac 50290450817 se benifesari ac no 777777348510565 jo ki mahendra bank hai ac se 10000rs tansafar Kar raha tha re Id 720918337469 hai jo ki abhi Wapasi nahi aaya sir wapas Keane ki kripa karaye iske pahle bhi complaint Maine ki hai complaint no 1G362 hai jisaka koi janab nahi mila,Wrong charges,Staff Behaviour,ATM related
Sir Mai 28/07/2017 ko apne ac 50290450817 se benifesari ac no 777777348510565 jo ki mahendra bank hai ac se 10000rs tansafar Kar raha tha re Id 720918337469 hai jo ki abhi Wapasi nahi aaya sir wapas Keane ki kripa karaye iske pahle bhi complaint Maine ki hai complaint no 1G362 hai jisaka koi janab nahi mila,Wrong charges,Staff Behaviour,ATM related
hamare AC. se /month 18 debit hota hai,Wrong charges,ATM related,Wrong charges/Over charge
"Sir hamara AC. no. 50352559986 name indresh yadav date 1-10-2017 time 8:25am amount  Rs. 9,500 debit hua hai 6081710994001868",Wrong charges,Wrong charges/Over charge,Payment Gateway failure
"I didn't receive my refund amount of Rs 3850
of this reference number 722411090151 send by Amazon.n",Payment Gateway failure,Wrong charges,Refund issues
"Respected  SIR ,
A GROUP OF PEOPLE CREAT A FAKE WEBSIDE AND COLLECT 70,000 RUPEES FOR PROVIDING KISOK BANKING OF ALL BANKS YOUR BANK NAME IS ALSO IN THEIR WEBSIDE . WEB ADRESS-www.Bankmitrabc.com ,mail id-kiosk@bankmitrabc.com,
My younger brother was already cheated 70,000 by them.So I request you kindly enquiry at your label and  save the common people.",Wrong charges,Payment Gateway failure,Refund issues
hamne apne phone pe wallet se paisa dala lekin paisa ritrun nahi aaya hamare account me phone pe register no. 9795553395,Wrong charges,Staff Behaviour,ATM related
sir I have open new current account . in 25-9 17 bank issue cheque book . and charge 500 without any  massage and permission . jis karan account holdr  is not know about low balance. then he deduced . low balance massage ya inform kai baad paise deduct kertai.   2-  dishoner cheque panalty is 590 fix or very from cheque  amt. 1-11 and 14-12 same penalty given by account holder.   plz resolved the problem.,Staff Behaviour,Wrong charges,ATM related
i changed my plan to infinity plan still bills is coming for roaming calls...,Wrong charges/Over charge,Internet issues,No Signal/Unable to use
I have not yet received my NEFT refund for security redund of airtel landline number 05624008980.Reference number-78671532 and Ticket number-AORf03917.Its been about a month.Submitted all documents both online as well as through whatsapp.Need help immediately.,Wrong charges/Over charge,Payment Gateway failure,Porting issues
Not received NEFT refund amount for security deposit on airtel fixed line number 7026288798.I had got the request registered several times but the redund has not been proceseed even once.Refernce number 78955218.Kindly take my matter on utmost priority else i will knock the doors of some higher authority.,Wrong charges/Over charge,Payment Gateway failure,Wrong charges
They have deducted an unfair mobile balance of rs 140.00 from my balance and deducted approx 2gb of data,Wrong charges/Over charge,Wrong charges,Payment Gateway failure
sir i made a payment if my electricity bill of 1011 from airtel money app but till now the payment has not recieved by the electricity department,Wrong charges/Over charge,Payment Gateway failure,Porting issues
amount of 99 rupees has been deducted from my account in the name of international roaming rental. I have not subscribed to any of such service or have gone abroad. kindly provide a clarification for the unnecessary deduction and also I expect by balance to be reverted.,Wrong charges,Wrong charges/Over charge,Payment Gateway failure
kindly contact on 8954028399 only.My request having refernce number 79364224 has not yet been processed for neft refund. I was assured by your representatives that the issue will be resolved withing 72 hours.nothing has been done till now.Request you to take important steps immediately.,No Signal/Unable to use,Refund issues,Payment Gateway failure
today I have recharged RS 100 to my Airtel wallet(7595948758) but my wallet doesn't show updated balance though my bank account already deducted......please suggest me what to do or wait,Wrong charges/Over charge,Wrong charges,Payment Gateway failure
6 mahinese 450 rs ka net pack band karneko bola tha company ko call kar ke fir bhi unhone band nahi kiya har mahine ke 450rs bill me jod dete hai kai bar complaint kar ke bhi net pack band nahi kiya bal ki maine airtel ka 1kb data bhi use nahi kiya. jab 2900 bill jama ho gaya to  maine bill bharana band kiya uske bad company ka call aya ki apko 2 month ke 450+450 = 900 kam karke dete bole aur muze 2000 bil bharne ko bole to maine 2000 bil bhara par unhone 900 kam nahi kiye o bache vale 900 unhone next bill me dal diye aur uparse bole 450 ka net pack off kar diya bole. ye bat ko ho gaye 2 month na net pack off kiya na bill kam kaya. plz meri complaint darz kariye aur as possible as mera problem solve kijiya thanks.,Wrong charges/Over charge,No Signal/Unable to use,Staff Behaviour
"Hi, 

I would like to inform you that,  I was applying new Airtel postpaid connection number issued me 9818784059 date 30/01/2017 security deposit or activation fee total amount paid Rs.  5250/- by cash from my side,  but my new Airtel postpaid connection till date not activated due to address verification fail.  So I was place a request of my security deposit or activation fee Rs.  5250/- refund to my bank account but Airtel refuse to refund due to Invalid payment recipe copy.

Please help me out of this problem because Airtel Ltd didn't help me regarding my refund. 



Regards, 
Rahul Sen
HPF DCD | Government of Delhi NCT | Revenu Department | rahulsen1071816@outlook.com | 9999051093 |",Wrong charges/Over charge,Porting issues,Wrong charges
SIR 6TH MARCH 2017 I RECHARGED MY AIRTEL MOBILE FOR  549 RS . BY CONFERMING BY THE CUSTOMER CARE EXECUTIVE'S AND SUPERVISOR TWICE THAT I AM GOING TO GET 1GB DATA PER DAY FOR 28 DAYS AFTER REACHARGE I ALSO CALLED CUSTOMER CARE AND CONFIRMED THAT I AM GOING TO GET 1GB DATA PER DAY. SO I STARTED USING THE MY MOBILE DATA AND I ALSO GOT CALL BACK FROM AIRTEL BY THE NUMBER +917349284866 saying that you can use 1 GB DATA PER DAY BUT NOW THEY ARE SAYING THAT THEY NEVER TOLD  WHAT SHOULD I DO NOW?,Wrong charges/Over charge,Porting issues,Internet issues
I've recharged my special recharge of Rs.349/- for that ive didn't get 28Gb of data.,Wrong charges/Over charge,Internet issues,Porting issues
"i had recharged rs.90 on my airtel no . 9108241031 on 2 weeks before .. but i din't get  recharge message and amount too.plz kindly check dat ..
and also another complaint about airtel sim is .. it din't give loan service sub bakwaz he i din't get loan amount.. its still show the message dat u r already taken loan of 50 on feb 22.. 
if u dint help me in dis 2 cases i'll throw it out dis sim and never use airtel.  .",Wrong charges/Over charge,Porting issues,Staff Behaviour
"I have recharged 799 as the offer was listed

Number : 9963530635

Recharge amount : 799/-

But I did not get the benefits that are promised 

I have been contacting the Airtel customer care for past 6 days

But the problem have not been resolved

now I got another message saying that those benefits cannot be given to me and they provided with alternative benefits 

I am very much frustrated with this.
please help me


Regards

V Sai Manoj

9963530635(Airtel)",Wrong charges/Over charge,Porting issues,No Signal/Unable to use
"‘I have recharged 799 as the offer was listed Number : 9963530635 
Recharge amount : 799/- 
But I did not get the benefits that are promised.
  I have been contacting the Airtel customer care for past 7 days But the problem have not been resolved now I got another message saying that those benefits cannot be given to me and they provided with alternative benefits I am very much frustrated with this. please help me
 Regards 
V Sai Manoj 
9963530635(Airtel)’",Wrong charges/Over charge,Porting issues,No Signal/Unable to use
My mobile number is 8080745550 and I recharged my account with ₹ 349 plan today in the afternoon and now at night my balance is ₹ 0.01 can i get to know why is it showing so less and why is the amount deducted. I hope you reply soon. Awaiting your reply,Wrong charges/Over charge,Payment Gateway failure,Wrong charges
I received a message from Airtel saying they have an unlimited offer for 344 (which will give me effectively 1gb per day for 28 days) so I go to the Airtel centre to get my phone recharged and I get a recharge done for RS 345. the guys sitting at the Airtel relationship centre says that both the plans are same. but after three days of use I found out that 345 recharge provided me data of 1gb for 28 days and my entire data was gone after three days..now I again go to the relationship centre and they say they have no idea about this 344 plan..I need urgent help in this regard..,Wrong charges/Over charge,Porting issues,Internet issues
"I had been getting a message that asked me to recharge me with 349 before 31st March, 2017 to get 28gb data with unlimited calling and 1gb per day for 28 days, which can extend till 1 year by recharging with 349 every month, but when I have done recharge with 349 on 31st March, 2017,  I got only 1gb data per 28 days. That is ridiculous. Please resolve the issue as soon as possible. Please provide the offer as mentioned in message.  Attached the screen shots",Wrong charges/Over charge,Porting issues,No Signal/Unable to use
Original product in Flipkart .,Wrong/Faulty product,Delay in delivery,Refund issues
I was purchased HP wireless printer but you deliver old cartage.  so was talk many times your customer he not able to helped me.  I also mail to refund and return.  still I am waiting for response...,Wrong/Faulty product,Refund issues,Delay in delivery
i have purchased moto e3 power from flipkart . it has wifi disconnect problem . still i did not get any working solution.,Wrong/Faulty product,No Signal/Unable to use,Bad food
Very very bed and defective pic delivery why tell me please  tell me urgently return,Wrong/Faulty product,Delay in delivery,Bad food
"Dear sir, 
 I have purchased one Lenovo k6 power phone from Flipkart and I got the phone on 24 February 2017 and when phone has a problem in which second SIM card slot is not working and I filed a replacement for it and technician came and certified the phone has a issue and I got a new phone on 3 March 2017 this time the phone has heating and hanging issue ... in which again I filed a return request this time I requested for refund.. again technician visit were there and he again certified the phone has above mentioned issue... I waited for 24 hour but this time company refused to give the return and again technician visit was assigned.. sir I want my money back to my credit card..... thank you sir I hope you help",Wrong/Faulty product,No Signal/Unable to use,Bad food
requested sir lenovo mobile phab 2 plus ordered and delivered to 28 March but my product hanging problem quality performance issue overheating and sometimes incoming receive call problem .,Wrong/Faulty product,No Signal/Unable to use,Bad food
"Dear Team

My name is deepak my complaint is this i have buy a shoes for flipkart in 16 th march due to some size issue i am request to exchange shoes but after 3 days my request is cancelled by flipkart then i am again request for exchange but my complaint is cancelled after 2 days now still i am still facing same issue and no one help me i am totally forested for flipkart so request you to please help me and solve the problem.

Regards
Deepak
M no.9953565517",Wrong/Faulty product,No Signal/Unable to use,Refund issues
not return the product,Wrong/Faulty product,Refund issues,Delay in delivery
Flipkart but the product which you have delivered to me is not mine order I have Ordered a dslr camera and you have sent me new formal shoes of someone and sir it's not my problem you are telling that the courier has confirmed you that the product was intact please have a talk to them they gave me the box of flipkart in that I was unknown of the wrong product and that delivery boy has not taken any signature also he took the money and gave the box I have paid you 22k for a camera not for a shoes and let me have a talk to your seller because it's not a small issue and your telling that my replacement request cannot be full filed it's my first order of flipkart and you have send me a wrong product it's illegal business yaar. Please give me call from your concerned department,Wrong/Faulty product,Delay in delivery,Bad food
flipkart company is fully fraud company i replace the mobile but it is not working properly and i was facing issue in this lyf water 7s mobile i very dissapointed with this mobile,Wrong/Faulty product,No Signal/Unable to use,Consumer extremely frustated
"I HAVE THIS LE ECO 2 MOBILE WHICH MY FRIEND GIFTED TO ME WHICH HE PURCHASED FROM FLIPKART ON 19-09-16 , IN THIS PHONE THERE WAS A PROBLE RELATED TO THE MIKE,SO I SUBMITTED THE PHONE TO THE LE ECO SERVICE CENTER ON 17-03-17 HAVING JOBSHEET NO-JS17031700289 AFTER THAT I HAVE VISITED THREE TIMES TO THE SERVICE CENTER BUT STILL I HAVE NOT GOT THE PHONE AND NOR THE FILPKART,THE LE ECO CAMPANEY,NOT THE SERVICE CENTER ARE GIVING ME PROPER REPLY WHEN WILL I WILL GET THE PHONE ,PLEAS DO HELP ME TO GET MY PHONE OR REFUND FOR MY PHONE SO THAT I CAN GET NEW PHONE  YOUR FAITHFULLY,DIPESH LODHA(8080584366)",Wrong/Faulty product,No Signal/Unable to use,Bad food
"Flipkart has cheated me by providing defective product and still I am suffering due to their irresponsible answers and fake commitments.  After raising complaint again & again they provided replacement after so much harrasment and delay in every task like technician visit, uninstallation, reverse pick up, replacement dispatch, reinstallation and everything.  Finally I received replacement and still there are many parts are missing like remote of air conditioner, copper pipe and many more. The sealed pack box was opened by their authorized Jeeves Technician Mr. Pratik Pandya.  Now they are delaying the refund amount and also denied to refund the installation charges which I paid for the product. I think they are not interested in providing refund and proper resolution. 48 days has been passed away and still no resolution has been given to me. I have complained so many times by call and email also. I only received acknowledgement email from their side, after that no one has responded to my email also. I want justice and full refund along with installation charges and compensation for the harrasment I have faced during last 48 days.",Wrong/Faulty product,Refund issues,Bad food
"The stones, earphones, and chargers found in the sir box are not found in the phone.",Wrong/Faulty product,No Signal/Unable to use,Bad food
Flipkart company n mujhe use product shoes deliver Kiya h or ab use wapis nhi le rhe h or bar bar juthi complaind le Lete h,Wrong/Faulty product,Bad food,Delay in delivery
hi my name is Karan Singh i purchased Motorola Max pulse headphone on 3rd October 2016 and delivered in 9th October and gave a 1 year warranty .now my headphones is not working so i go to the Motorola service centre they tell me your headphone will not exchange because they will not provide the service and talk to the flipkart they will repair or exchange the product .please help me from this situation,Wrong/Faulty product,Bad food,Delay in delivery
"i had ordered a bedsheet of Bomber dying ,& i soaked it in water for the very 1st use the bedsheet got shrinked & now it's falling short on the bed, though i had checked my bed size & bed sheets sized & order but its of no use for me,i want to return it..",Wrong/Faulty product,Bad food,Delay in delivery
I purchase a micromax evok note from flipkart on27th may . After one day it get extremely hot and automatically switched off I call flipkart and told them about it then I demand to give my money back  but they refuse to refund my money they only want to replacement but I want my money back .I am in difficulty please solve it,Wrong/Faulty product,Bad food,Refund issues
I call flipkart to refund my money but they refuse to refund when I purchase the phone flipkart has return policy but when I call them they told that they do not have refund policy I complaint against flipkart to cheat me to give me such bad phone I request to help me in my problem,Wrong/Faulty product,Refund issues,Bad food
Order no.-109194036124172000 Date of Ordering-18/5/2017 Amount Paid-559 rs Problem Details- i ordered a power bank from flipkart on 18/5/2017 so he got defected then i return and i got replacement old power bank that was used so i try to call again for replacement company they said no replacement only refund i want replacement of his product.,Wrong/Faulty product,Bad food,Refund issues
"2 mobile purchased both r having mic problem 

one mobile took one month time for repairing and now facing issues in speaker ..every time Lenovo service provider repair it n it gives problem 

other mobile also started giving same problem .

want to file case in consumer court pls provide to whom should I address in Flipkart . 

the worst service after sales ...poor response from Ur side ..very delayed replying​ .. 

pls share Ur Head office address and phone number to file the case .",Wrong/Faulty product,No Signal/Unable to use,Internet issues
"I have purchased a Lenovo k5 note through login id- 8100021314 / kumar.chandan941@gmail.com, order no.- OD109194188602010000, but I consider that mobile battery is sharply discharge and back up is not well. Back camera quality images is very poor & images after zooming​ is very bad. 
So far this handset is not according to my expectation and investment. Thereafter I made  replacement order many times but company denied always without any satisfactory answer. After this complaint if company donot take any satisfactory action then I will file a case against company in D.C.D.R.F. Kolkata (consumer court) as compensation for deficiency of service/ unfair trade practices, harassment , mental agony along with litigation cost.",Wrong/Faulty product,Bad food,Consumer extremely frustated
"Mujhe different color ka product mila flipkart se Inddus embroidery kurta & churider, Maine jab return request di unhone cancelled kr diya or account ko or no ko block kr diya, Maine flipkart ko email ki tab vi unhone koi reply nhi diya
I want my refund back 
Product returned 
Return Update: Sorry, the seller is unable to fulfill your return request for Inddus ... with order id OD109334721556453000. Please check your email for more details.",Refund issues,Wrong/Faulty product,Wrong charges
"I order Panasonic Eluga mobile phone but I am received only stone. I will complain Flipkart seven days before.But Flipkart do not take action.

Sitansu Dinda",Wrong/Faulty product,Delay in delivery,Refund issues
I ordered Moto c plus on 20th on June this Moto c plus also launched on 20th June but I got this product on 23rd on June but I facing speaker problem in this mobile there is no sound in this mobile,Wrong/Faulty product,Consumer extremely frustated,Bad food
I have ordered Moto m gold 32gb mobile which was delivered me on 18/6/2017 after using for 2 to 3 days it was not properly working i noticed that mic of the mobile is not working so I just claim for replacement which was accepted by Flipkart and they gave me new handset after configuring my new handset I noticed that the same problem was there with this new handset  mic was not working in that mobile to so I call to Flipkart helpline and they told me that I should visit brand service station regarding any problem With product so I visited the brand service station but they denied to help me regarding online purchase then I call to Motorola helpline and talk regarding my issue after talking to Motorola helpline that brand shop fellow was ready to help but Flipkart is not helping in replacing my faulty handset Flipkart is telling me to repair the same and brand service station is saying that it will take 10 to 15 days to fix my mobile issue,Wrong/Faulty product,No Signal/Unable to use,Bad food
